tmp/build/u337mg158_ece337_usb_tx_1.0.0/sim-modelsim/waveform.vcd
$date
	Fri Apr 17 14:07:55 2026
$end
$version
	QuestaSim Version 2021.4
$end
$timescale
	1ps
$end

$scope module tb_usb_tx $end
$var parameter 0 ! CLK_PERIOD $end
$var parameter 16 " EXPECTED_CRC $end
$var reg 1 # clk $end
$var reg 1 $ n_rst $end
$var reg 8 % tx_packet_data [7:0] $end
$var reg 3 & tx_packet [2:0] $end
$var reg 7 ' buffer_occupancy [6:0] $end
$var reg 1 ( get_tx_packet_data $end
$var reg 1 ) tx_transfer_active $end
$var reg 1 * tx_error $end
$var reg 1 + dm_out $end
$var reg 1 , dp_out $end
$var reg 1 - prev_dp $end

$scope task reset_dut $end
$upscope $end

$scope task init_signals $end
$upscope $end

$scope begin stuffing_check $end
$var integer 32 . i $end
$var reg 1 / expected_dp $end
$upscope $end

$scope begin crc_wire_check $end
$var integer 32 0 i $end
$upscope $end

$scope module DUT $end
$var wire 1 1 clk $end
$var wire 1 2 n_rst $end
$var wire 1 3 tx_packet_data [7] $end
$var wire 1 4 tx_packet_data [6] $end
$var wire 1 5 tx_packet_data [5] $end
$var wire 1 6 tx_packet_data [4] $end
$var wire 1 7 tx_packet_data [3] $end
$var wire 1 8 tx_packet_data [2] $end
$var wire 1 9 tx_packet_data [1] $end
$var wire 1 : tx_packet_data [0] $end
$var wire 1 ; tx_packet [2] $end
$var wire 1 < tx_packet [1] $end
$var wire 1 = tx_packet [0] $end
$var wire 1 > buffer_occupancy [6] $end
$var wire 1 ? buffer_occupancy [5] $end
$var wire 1 @ buffer_occupancy [4] $end
$var wire 1 A buffer_occupancy [3] $end
$var wire 1 B buffer_occupancy [2] $end
$var wire 1 C buffer_occupancy [1] $end
$var wire 1 D buffer_occupancy [0] $end
$var reg 1 E get_tx_packet_data $end
$var reg 1 F tx_transfer_active $end
$var reg 1 G tx_error $end
$var reg 1 H dm_out $end
$var reg 1 I dp_out $end
$var reg 4 J currentState [3:0] $end
$var reg 4 K nextState [3:0] $end
$var reg 1 L shift_en $end
$var reg 1 M load_en $end
$var reg 1 N bit_pulse $end
$var reg 5 O bit_counter [4:0] $end
$var reg 5 P next_bit_counter [4:0] $end
$var reg 3 Q ones_count [2:0] $end
$var reg 3 R next_ones_count [2:0] $end
$var reg 1 S stuff_active $end
$var reg 1 T next_stuff_active $end
$var reg 16 U crc16 [15:0] $end
$var reg 16 V next_crc16 [15:0] $end
$var reg 1 W nrzi_bit $end
$var reg 4 X pid [3:0] $end
$var reg 8 Y sr_load_data [7:0] $end
$var reg 2 Z pattern_state [1:0] $end
$var reg 4 [ rollover_val [3:0] $end
$var reg 1 \ serial_out $end
$var reg 16 ] crc16_inv [15:0] $end
$var reg 1 ^ fb $end
$var reg 1 _ dp_orig $end
$var reg 1 ` next_dp_orig $end

$scope module clk_div $end
$var parameter 32 a SIZE $end
$var wire 1 1 clk $end
$var wire 1 2 n_rst $end
$var wire 1 b clear $end
$var wire 1 c count_enable $end
$var wire 1 d rollover_val [3] $end
$var wire 1 e rollover_val [2] $end
$var wire 1 f rollover_val [1] $end
$var wire 1 g rollover_val [0] $end
$var reg 4 h count_out [3:0] $end
$var reg 1 i rollover_flag $end
$var reg 4 j next_count_out [3:0] $end
$var reg 1 k next_rollover_flag $end
$upscope $end

$scope module data_sr $end
$var parameter 32 l SIZE $end
$var parameter 32 m MSB_FIRST $end
$var wire 1 1 clk $end
$var wire 1 2 n_rst $end
$var wire 1 n shift_enable $end
$var wire 1 o load_enable $end
$var wire 1 p serial_in $end
$var wire 1 q parallel_in [7] $end
$var wire 1 r parallel_in [6] $end
$var wire 1 s parallel_in [5] $end
$var wire 1 t parallel_in [4] $end
$var wire 1 u parallel_in [3] $end
$var wire 1 v parallel_in [2] $end
$var wire 1 w parallel_in [1] $end
$var wire 1 x parallel_in [0] $end
$var reg 1 y serial_out $end
$var reg 8 z parallel_out [7:0] $end
$var reg 8 { next_parallel_out [7:0] $end
$upscope $end
$upscope $end
$upscope $end

$scope begin std $end
$upscope $end
$enddefinitions $end
#0
$dumpvars
0#
0$
b0 %
b0 &
b0 '
0(
0)
0*
0+
1,
x-
0E
0F
0G
0H
1I
b0 J
b0 K
0L
0M
0N
b0 O
b0 P
b0 Q
b0 R
0S
0T
b1111111111111111 U
b1111111111111111 V
1W
b1110 X
b0 Y
b0 Z
b111 [
1\
b0 h
0i
b1 j
0k
1y
b11111111 z
b11111111 {
b0 ]
0^
1_
1`
x/
b111111111111101 "
b100 a
b1000 l
b0 m
r10 !
bx .
bx 0
0D
0C
0B
0A
0@
0?
0>
0=
0<
0;
0:
09
08
07
06
05
04
03
02
01
0x
0w
0v
0u
0t
0s
0r
0q
0p
0o
0n
1g
1f
1e
0d
1c
0b
$end
#5000
1#
11
#10000
0#
01
#15000
1#
11
#20000
0#
01
1$
12
#25000
1#
11
b1 h
b10 j
#30000
0#
01
#35000
1#
11
b11 &
1=
1<
b1 K
b10 X
b0 K
b1 K
b10 h
b11 j
#40000
0#
01
#45000
1#
11
b11 h
b1 J
1M
1F
b1 Y
b100 j
1)
1o
1x
b1 {
#50000
0#
01
#55000
1#
11
b1 z
b100 h
b101 j
#60000
0#
01
#65000
1#
11
b101 h
b110 j
#70000
0#
01
#75000
1#
11
b110 h
b111 j
1k
#80000
0#
01
#85000
1#
11
b111 h
1i
1N
b1 P
0F
0M
1M
1F
1L
b1 R
b1 j
1n
0k
#90000
0#
01
#95000
1#
11
b1 O
b1 Q
b1 Z
b1 h
0i
0N
b10 j
0F
0L
0M
1F
0n
0o
#100000
0#
01
#105000
1#
11
b10 h
b11 j
#110000
0#
01
#115000
1#
11
b11 h
b100 j
#120000
0#
01
#125000
1#
11
b100 h
b101 j
#130000
0#
01
#135000
1#
11
b101 h
b110 j
#140000
0#
01
#145000
1#
11
b110 h
b111 j
1k
#150000
0#
01
#155000
1#
11
b111 h
1i
1N
b10 P
0F
1F
1L
b10 R
b1 j
1n
b0 {
0k
#160000
0#
01
#165000
1#
11
b0 z
b10 O
b10 Q
b10 Z
b1 h
0i
0N
b10 j
b1000 [
0F
0L
1F
0y
0\
0W
1^
0g
0f
0e
1d
0n
b1 j
b10 j
#170000
0#
01
#175000
1#
11
b10 h
b11 j
#180000
0#
01
#185000
1#
11
b11 h
b100 j
#190000
0#
01
#195000
1#
11
b100 h
b101 j
#200000
0#
01
#205000
1#
11
b101 h
b110 j
#210000
0#
01
#215000
1#
11
b110 h
b111 j
#220000
0#
01
#225000
1#
11
b111 h
b1000 j
1k
#230000
0#
01
#235000
1#
11
b1000 h
1i
1N
b11 P
0F
1F
1L
b0 R
0`
b1 j
1n
0k
#240000
0#
01
#245000
1#
11
0_
b11 O
b0 Q
b0 Z
b1 h
0i
0N
b10 j
b111 [
0F
0L
1F
0I
1H
1+
0,
1g
1f
1e
0d
0n
b1 j
b10 j
#250000
0#
01
#255000
1#
11
b10 h
b11 j
#260000
0#
01
#265000
1#
11
b11 h
b100 j
#270000
0#
01
#275000
1#
11
b100 h
b101 j
#280000
0#
01
#285000
1#
11
b101 h
b110 j
#290000
0#
01
#295000
1#
11
b110 h
b111 j
1k
#300000
0#
01
#305000
1#
11
b111 h
1i
1N
b100 P
0F
1F
1L
1`
b1 j
1n
0k
#310000
0#
01
#315000
1#
11
1_
b100 O
b1 Z
b1 h
0i
0N
b10 j
0F
0L
1F
1I
0H
0+
1,
0n
#320000
0#
01
#325000
1#
11
b10 h
b11 j
#330000
0#
01
#335000
1#
11
b11 h
b100 j
#340000
0#
01
#345000
1#
11
b100 h
b101 j
#350000
0#
01
#355000
1#
11
b101 h
b110 j
#360000
0#
01
#365000
1#
11
b110 h
b111 j
1k
#370000
0#
01
#375000
1#
11
b111 h
1i
1N
b101 P
0F
1F
1L
0`
b1 j
1n
0k
#380000
0#
01
#385000
1#
11
0_
b101 O
b10 Z
b1 h
0i
0N
b10 j
b1000 [
0F
0L
1F
0I
1H
1+
0,
0g
0f
0e
1d
0n
b1 j
b10 j
#390000
0#
01
#395000
1#
11
b10 h
b11 j
#400000
0#
01
#405000
1#
11
b11 h
b100 j
#410000
0#
01
#415000
1#
11
b100 h
b101 j
#420000
0#
01
#425000
1#
11
b101 h
b110 j
#430000
0#
01
#435000
1#
11
b110 h
b111 j
#440000
0#
01
#445000
1#
11
b111 h
b1000 j
1k
#450000
0#
01
#455000
1#
11
b1000 h
1i
1N
b110 P
0F
1F
1L
1`
b1 j
1n
0k
#460000
0#
01
#465000
1#
11
1_
b110 O
b0 Z
b1 h
0i
0N
b10 j
b111 [
0F
0L
1F
1I
0H
0+
1,
1g
1f
1e
0d
0n
b1 j
b10 j
#470000
0#
01
#475000
1#
11
b10 h
b11 j
#480000
0#
01
#485000
1#
11
b11 h
b100 j
#490000
0#
01
#495000
1#
11
b100 h
b101 j
#500000
0#
01
#505000
1#
11
b101 h
b110 j
#510000
0#
01
#515000
1#
11
b110 h
b111 j
1k
#520000
0#
01
#525000
1#
11
b111 h
1i
1N
b111 P
0F
1F
1L
0`
b1 j
1n
0k
#530000
0#
01
#535000
1#
11
0_
b111 O
b1 Z
b1 h
0i
0N
b10 j
b10 K
b0 P
0F
0L
1F
0I
1H
1+
0,
0n
#540000
0#
01
#545000
1#
11
b10 h
b10 J
b0 O
0F
1M
1F
b11010010 Y
b11 j
1o
0x
1w
1t
1r
1q
b11010010 {
#550000
0#
01
#555000
1#
11
b11010010 z
b11 h
b100 j
#560000
0#
01
#565000
1#
11
b100 h
b101 j
#570000
0#
01
#575000
1#
11
b101 h
b110 j
#580000
0#
01
#585000
1#
11
b110 h
b111 j
1k
#590000
0#
01
#595000
1#
11
b111 h
1i
1N
b1 P
0F
0M
1M
1F
1L
1`
b1 j
1n
0k
#600000
0#
01
#605000
1#
11
1_
b1 O
b10 Z
b1 h
0i
0N
b10 j
b1000 [
0F
0L
0M
1F
1I
0H
0+
1,
0g
0f
0e
1d
0n
0o
b1 j
b10 j
#610000
0#
01
#615000
1#
11
b10 h
b11 j
#620000
0#
01
#625000
1#
11
b11 h
b100 j
#630000
0#
01
#635000
1#
11
b100 h
b101 j
#640000
0#
01
#645000
1#
11
b101 h
b110 j
#650000
0#
01
#655000
1#
11
b110 h
b111 j
#660000
0#
01
#665000
1#
11
b111 h
b1000 j
1k
#670000
0#
01
#675000
1#
11
b1000 h
1i
1N
b10 P
0F
1F
1L
0`
b1 j
1n
b1101001 {
0k
#680000
0#
01
#685000
1#
11
b1101001 z
0_
b10 O
b0 Z
b1 h
0i
0N
b10 j
b111 [
0F
0L
1F
0I
1H
1y
b110100 {
1\
1+
0,
1W
0^
1g
1f
1e
0d
0n
b1 j
b10 j
b1101001 {
#690000
0#
01
#695000
1#
11
b10 h
b11 j
#700000
0#
01
#705000
1#
11
b11 h
b100 j
#710000
0#
01
#715000
1#
11
b100 h
b101 j
#720000
0#
01
#725000
1#
11
b101 h
b110 j
#730000
0#
01
#735000
1#
11
b110 h
b111 j
1k
#740000
0#
01
#745000
1#
11
b111 h
1i
1N
b11 P
0F
1F
1L
b1 R
b1 j
1n
b110100 {
0k
#750000
0#
01
#755000
1#
11
b110100 z
b11 O
b1 Q
b1 Z
b1 h
0i
0N
b10 j
0F
0L
1F
0y
b11010 {
0\
0W
1^
0n
b110100 {
#760000
0#
01
#765000
1#
11
b10 h
b11 j
#770000
0#
01
#775000
1#
11
b11 h
b100 j
#780000
0#
01
#785000
1#
11
b100 h
b101 j
#790000
0#
01
#795000
1#
11
b101 h
b110 j
#800000
0#
01
#805000
1#
11
b110 h
b111 j
1k
#810000
0#
01
#815000
1#
11
b111 h
1i
1N
b100 P
0F
1F
1L
b0 R
1`
b1 j
1n
b11010 {
0k
#820000
0#
01
#825000
1#
11
b11010 z
1_
b100 O
b0 Q
b10 Z
b1 h
0i
0N
b10 j
b1000 [
0F
0L
1F
1I
0H
b1101 {
0+
1,
0g
0f
0e
1d
0n
b1 j
b10 j
b11010 {
#830000
0#
01
#835000
1#
11
b10 h
b11 j
#840000
0#
01
#845000
1#
11
b11 h
b100 j
#850000
0#
01
#855000
1#
11
b100 h
b101 j
#860000
0#
01
#865000
1#
11
b101 h
b110 j
#870000
0#
01
#875000
1#
11
b110 h
b111 j
#880000
0#
01
#885000
1#
11
b111 h
b1000 j
1k
#890000
0#
01
#895000
1#
11
b1000 h
1i
1N
b101 P
0F
1F
1L
0`
b1 j
1n
b1101 {
0k
#900000
0#
01
#905000
1#
11
b1101 z
0_
b101 O
b0 Z
b1 h
0i
0N
b10 j
b111 [
0F
0L
1F
0I
1H
1y
b110 {
1\
1+
0,
1W
0^
1g
1f
1e
0d
0n
b1 j
b10 j
b1101 {
#910000
0#
01
#915000
1#
11
b10 h
b11 j
#920000
0#
01
#925000
1#
11
b11 h
b100 j
#930000
0#
01
#935000
1#
11
b100 h
b101 j
#940000
0#
01
#945000
1#
11
b101 h
b110 j
#950000
0#
01
#955000
1#
11
b110 h
b111 j
1k
#960000
0#
01
#965000
1#
11
b111 h
1i
1N
b110 P
0F
1F
1L
b1 R
b1 j
1n
b110 {
0k
#970000
0#
01
#975000
1#
11
b110 z
b110 O
b1 Q
b1 Z
b1 h
0i
0N
b10 j
0F
0L
1F
0y
b11 {
0\
0W
1^
0n
b110 {
#980000
0#
01
#985000
1#
11
b10 h
b11 j
#990000
0#
01
#995000
1#
11
b11 h
b100 j
#1000000
0#
01
#1005000
1#
11
b100 h
b101 j
#1010000
0#
01
#1015000
1#
11
b101 h
b110 j
#1020000
0#
01
#1025000
1#
11
b110 h
b111 j
1k
#1030000
0#
01
#1035000
1#
11
b111 h
1i
1N
b111 P
0F
1F
1L
b0 R
1`
b1 j
1n
b11 {
0k
#1040000
0#
01
#1045000
1#
11
b11 z
1_
b111 O
b0 Q
b10 Z
b1 h
0i
0N
b10 j
b1000 [
b110 K
b0 P
0F
0L
1F
1I
0H
1y
b1 {
1\
0+
1,
1W
0^
0g
0f
0e
1d
0n
b1 j
b10 j
b11 {
#1050000
0#
01
#1055000
1#
11
b10 h
b110 J
b0 O
0F
b0 Y
0I
b11 j
0,
0)
0w
0t
0r
0q
#1060000
0#
01
#1065000
1#
11
b11 h
b100 j
#1070000
0#
01
#1075000
1#
11
b100 h
b101 j
#1080000
0#
01
#1085000
1#
11
b101 h
b110 j
#1090000
0#
01
#1095000
1#
11
b110 h
b111 j
#1100000
0#
01
#1105000
1#
11
b111 h
b1000 j
1k
#1110000
0#
01
#1115000
1#
11
b1000 h
1i
1N
b1 P
b1 j
0k
#1120000
0#
01
#1125000
1#
11
b1 O
b0 Z
b1 h
0i
0N
b10 j
b111 [
1g
1f
1e
0d
b1 j
b10 j
#1130000
0#
01
#1135000
1#
11
b10 h
b11 j
#1140000
0#
01
#1145000
1#
11
b11 h
b100 j
#1150000
0#
01
#1155000
1#
11
b100 h
b101 j
#1160000
0#
01
#1165000
1#
11
b101 h
b110 j
#1170000
0#
01
#1175000
1#
11
b110 h
b111 j
1k
#1180000
0#
01
#1185000
1#
11
b111 h
1i
1N
b10 P
b1 j
0k
#1190000
0#
01
#1195000
1#
11
b10 O
b1 Z
b1 h
0i
0N
b10 j
b1000 K
b0 P
#1200000
0#
01
#1205000
1#
11
b10 h
b1000 J
b0 O
1I
b11 j
1,
#1210000
0#
01
#1215000
1#
11
b11 h
b100 j
#1220000
0#
01
#1225000
1#
11
b100 h
b101 j
#1230000
0#
01
#1235000
1#
11
b101 h
b110 j
#1240000
0#
01
#1245000
1#
11
b110 h
b111 j
1k
#1250000
0#
01
#1255000
1#
11
b111 h
1i
1N
b0 K
b1 j
0k
#1260000
0#
01
#1265000
1#
11
b0 J
b10 Z
b1 h
0i
0N
b10 j
b1000 [
b1 K
0g
0f
0e
1d
b1 j
b10 j
#1266000
0$
02
b0 Z
b0 h
b11111111 z
b11111111 {
b0 j
b1 j
b111 [
1g
1f
1e
0d
b0 j
b1 j
#1270000
0#
01
#1275000
1#
11
#1280000
0#
01
#1285000
1#
11
#1290000
0#
01
1$
12
#1295000
1#
11
b1 J
b1 h
b10 j
1M
1F
b1 Y
1)
1o
1x
b1 {
#1300000
0#
01
#1305000
1#
11
b0 &
b100 &
0=
0<
1;
b1010 X
b1 z
b10 h
b11 j
#1310000
0#
01
#1315000
1#
11
b11 h
b100 j
#1320000
0#
01
#1325000
1#
11
b100 h
b101 j
#1330000
0#
01
#1335000
1#
11
b101 h
b110 j
#1340000
0#
01
#1345000
1#
11
b110 h
b111 j
1k
#1350000
0#
01
#1355000
1#
11
b111 h
1i
1N
b1 P
0F
0M
1M
1F
1L
b1 R
b1 j
1n
0k
#1360000
0#
01
#1365000
1#
11
b1 O
b1 Q
b1 Z
b1 h
0i
0N
b10 j
0F
0L
0M
1F
0n
0o
#1370000
0#
01
#1375000
1#
11
b10 h
b11 j
#1380000
0#
01
#1385000
1#
11
b11 h
b100 j
#1390000
0#
01
#1395000
1#
11
b100 h
b101 j
#1400000
0#
01
#1405000
1#
11
b101 h
b110 j
#1410000
0#
01
#1415000
1#
11
b110 h
b111 j
1k
#1420000
0#
01
#1425000
1#
11
b111 h
1i
1N
b10 P
0F
1F
1L
b10 R
b1 j
1n
b0 {
0k
#1430000
0#
01
#1435000
1#
11
b0 z
b10 O
b10 Q
b10 Z
b1 h
0i
0N
b10 j
b1000 [
0F
0L
1F
0y
0\
0W
1^
0g
0f
0e
1d
0n
b1 j
b10 j
#1440000
0#
01
#1445000
1#
11
b10 h
b11 j
#1450000
0#
01
#1455000
1#
11
b11 h
b100 j
#1460000
0#
01
#1465000
1#
11
b100 h
b101 j
#1470000
0#
01
#1475000
1#
11
b101 h
b110 j
#1480000
0#
01
#1485000
1#
11
b110 h
b111 j
#1490000
0#
01
#1495000
1#
11
b111 h
b1000 j
1k
#1500000
0#
01
#1505000
1#
11
b1000 h
1i
1N
b11 P
0F
1F
1L
b0 R
0`
b1 j
1n
0k
#1510000
0#
01
#1515000
1#
11
0_
b11 O
b0 Q
b0 Z
b1 h
0i
0N
b10 j
b111 [
0F
0L
1F
0I
1H
1+
0,
1g
1f
1e
0d
0n
b1 j
b10 j
#1520000
0#
01
#1525000
1#
11
b10 h
b11 j
#1530000
0#
01
#1535000
1#
11
b11 h
b100 j
#1540000
0#
01
#1545000
1#
11
b100 h
b101 j
#1550000
0#
01
#1555000
1#
11
b101 h
b110 j
#1560000
0#
01
#1565000
1#
11
b110 h
b111 j
1k
#1570000
0#
01
#1575000
1#
11
b111 h
1i
1N
b100 P
0F
1F
1L
1`
b1 j
1n
0k
#1580000
0#
01
#1585000
1#
11
1_
b100 O
b1 Z
b1 h
0i
0N
b10 j
0F
0L
1F
1I
0H
0+
1,
0n
#1590000
0#
01
#1595000
1#
11
b10 h
b11 j
#1600000
0#
01
#1605000
1#
11
b11 h
b100 j
#1610000
0#
01
#1615000
1#
11
b100 h
b101 j
#1620000
0#
01
#1625000
1#
11
b101 h
b110 j
#1630000
0#
01
#1635000
1#
11
b110 h
b111 j
1k
#1640000
0#
01
#1645000
1#
11
b111 h
1i
1N
b101 P
0F
1F
1L
0`
b1 j
1n
0k
#1650000
0#
01
#1655000
1#
11
0_
b101 O
b10 Z
b1 h
0i
0N
b10 j
b1000 [
0F
0L
1F
0I
1H
1+
0,
0g
0f
0e
1d
0n
b1 j
b10 j
#1660000
0#
01
#1665000
1#
11
b10 h
b11 j
#1670000
0#
01
#1675000
1#
11
b11 h
b100 j
#1680000
0#
01
#1685000
1#
11
b100 h
b101 j
#1690000
0#
01
#1695000
1#
11
b101 h
b110 j
#1700000
0#
01
#1705000
1#
11
b110 h
b111 j
#1710000
0#
01
#1715000
1#
11
b111 h
b1000 j
1k
#1720000
0#
01
#1725000
1#
11
b1000 h
1i
1N
b110 P
0F
1F
1L
1`
b1 j
1n
0k
#1730000
0#
01
#1735000
1#
11
1_
b110 O
b0 Z
b1 h
0i
0N
b10 j
b111 [
0F
0L
1F
1I
0H
0+
1,
1g
1f
1e
0d
0n
b1 j
b10 j
#1740000
0#
01
#1745000
1#
11
b10 h
b11 j
#1750000
0#
01
#1755000
1#
11
b11 h
b100 j
#1760000
0#
01
#1765000
1#
11
b100 h
b101 j
#1770000
0#
01
#1775000
1#
11
b101 h
b110 j
#1780000
0#
01
#1785000
1#
11
b110 h
b111 j
1k
#1790000
0#
01
#1795000
1#
11
b111 h
1i
1N
b111 P
0F
1F
1L
0`
b1 j
1n
0k
#1800000
0#
01
#1805000
1#
11
0_
b111 O
b1 Z
b1 h
0i
0N
b10 j
b10 K
b0 P
0F
0L
1F
0I
1H
1+
0,
0n
#1810000
0#
01
#1815000
1#
11
b10 h
b10 J
b0 O
0F
1M
1F
b1011010 Y
b11 j
1o
0x
1w
1u
1t
1r
b1011010 {
#1820000
0#
01
#1825000
1#
11
b1011010 z
b11 h
b100 j
#1830000
0#
01
#1835000
1#
11
b100 h
b101 j
#1840000
0#
01
#1845000
1#
11
b101 h
b110 j
#1850000
0#
01
#1855000
1#
11
b110 h
b111 j
1k
#1860000
0#
01
#1865000
1#
11
b111 h
1i
1N
b1 P
0F
0M
1M
1F
1L
1`
b1 j
1n
0k
#1870000
0#
01
#1875000
1#
11
1_
b1 O
b10 Z
b1 h
0i
0N
b10 j
b1000 [
0F
0L
0M
1F
1I
0H
0+
1,
0g
0f
0e
1d
0n
0o
b1 j
b10 j
#1880000
0#
01
#1885000
1#
11
b10 h
b11 j
#1890000
0#
01
#1895000
1#
11
b11 h
b100 j
#1900000
0#
01
#1905000
1#
11
b100 h
b101 j
#1910000
0#
01
#1915000
1#
11
b101 h
b110 j
#1920000
0#
01
#1925000
1#
11
b110 h
b111 j
#1930000
0#
01
#1935000
1#
11
b111 h
b1000 j
1k
#1940000
0#
01
#1945000
1#
11
b1000 h
1i
1N
b10 P
0F
1F
1L
0`
b1 j
1n
b101101 {
0k
#1950000
0#
01
#1955000
1#
11
b101101 z
0_
b10 O
b0 Z
b1 h
0i
0N
b10 j
b111 [
0F
0L
1F
0I
1H
1y
b10110 {
1\
1+
0,
1W
0^
1g
1f
1e
0d
0n
b1 j
b10 j
b101101 {
#1960000
0#
01
#1965000
1#
11
b10 h
b11 j
#1970000
0#
01
#1975000
1#
11
b11 h
b100 j
#1980000
0#
01
#1985000
1#
11
b100 h
b101 j
#1990000
0#
01
#1995000
1#
11
b101 h
b110 j
#2000000
0#
01
#2005000
1#
11
b110 h
b111 j
1k
#2010000
0#
01
#2015000
1#
11
b111 h
1i
1N
b11 P
0F
1F
1L
b1 R
b1 j
1n
b10110 {
0k
#2020000
0#
01
#2025000
1#
11
b10110 z
b11 O
b1 Q
b1 Z
b1 h
0i
0N
b10 j
0F
0L
1F
0y
b1011 {
0\
0W
1^
0n
b10110 {
#2030000
0#
01
#2035000
1#
11
b10 h
b11 j
#2040000
0#
01
#2045000
1#
11
b11 h
b100 j
#2050000
0#
01
#2055000
1#
11
b100 h
b101 j
#2060000
0#
01
#2065000
1#
11
b101 h
b110 j
#2070000
0#
01
#2075000
1#
11
b110 h
b111 j
1k
#2080000
0#
01
#2085000
1#
11
b111 h
1i
1N
b100 P
0F
1F
1L
b0 R
1`
b1 j
1n
b1011 {
0k
#2090000
0#
01
#2095000
1#
11
b1011 z
1_
b100 O
b0 Q
b10 Z
b1 h
0i
0N
b10 j
b1000 [
0F
0L
1F
1I
0H
1y
b101 {
1\
0+
1,
1W
0^
0g
0f
0e
1d
0n
b1 j
b10 j
b1011 {
#2100000
0#
01
#2105000
1#
11
b10 h
b11 j
#2110000
0#
01
#2115000
1#
11
b11 h
b100 j
#2120000
0#
01
#2125000
1#
11
b100 h
b101 j
#2130000
0#
01
#2135000
1#
11
b101 h
b110 j
#2140000
0#
01
#2145000
1#
11
b110 h
b111 j
#2150000
0#
01
#2155000
1#
11
b111 h
b1000 j
1k
#2160000
0#
01
#2165000
1#
11
b1000 h
1i
1N
b101 P
0F
1F
1L
b1 R
b1 j
1n
b101 {
0k
#2170000
0#
01
#2175000
1#
11
b101 z
b101 O
b1 Q
b0 Z
b1 h
0i
0N
b10 j
b111 [
0F
0L
1F
b10 {
1g
1f
1e
0d
0n
b1 j
b10 j
b101 {
#2180000
0#
01
#2185000
1#
11
b10 h
b11 j
#2190000
0#
01
#2195000
1#
11
b11 h
b100 j
#2200000
0#
01
#2205000
1#
11
b100 h
b101 j
#2210000
0#
01
#2215000
1#
11
b101 h
b110 j
#2220000
0#
01
#2225000
1#
11
b110 h
b111 j
1k
#2230000
0#
01
#2235000
1#
11
b111 h
1i
1N
b110 P
0F
1F
1L
b10 R
b1 j
1n
b10 {
0k
#2240000
0#
01
#2245000
1#
11
b10 z
b110 O
b10 Q
b1 Z
b1 h
0i
0N
b10 j
0F
0L
1F
0y
b1 {
0\
0W
1^
0n
b10 {
#2250000
0#
01
#2255000
1#
11
b10 h
b11 j
#2260000
0#
01
#2265000
1#
11
b11 h
b100 j
#2270000
0#
01
#2275000
1#
11
b100 h
b101 j
#2280000
0#
01
#2285000
1#
11
b101 h
b110 j
#2290000
0#
01
#2295000
1#
11
b110 h
b111 j
1k
#2300000
0#
01
#2305000
1#
11
b111 h
1i
1N
b111 P
0F
1F
1L
b0 R
0`
b1 j
1n
b1 {
0k
#2310000
0#
01
#2315000
1#
11
b1 z
0_
b111 O
b0 Q
b10 Z
b1 h
0i
0N
b10 j
b1000 [
b110 K
b0 P
0F
0L
1F
0I
1H
1y
b0 {
1\
1+
0,
1W
0^
0g
0f
0e
1d
0n
b1 j
b10 j
b1 {
#2320000
0#
01
#2325000
1#
11
b10 h
b110 J
b0 O
0F
b0 Y
0H
b11 j
0+
0)
0w
0u
0t
0r
#2326000
0$
02
b0 J
b0 Z
b0 h
b11111111 z
1_
b11111111 {
b0 j
b1 j
b111 [
b0 K
b1 K
1`
1I
1,
1g
1f
1e
0d
b0 j
b1 j
#2330000
0#
01
#2335000
1#
11
#2340000
0#
01
#2345000
1#
11
#2350000
0#
01
1$
12
#2355000
1#
11
b1 J
b1 h
b10 j
1M
1F
b1 Y
1)
1o
1x
b1 {
#2360000
0#
01
#2365000
1#
11
b0 &
b1 &
b100 '
b10101011 %
1:
19
17
15
13
1B
1=
0;
b11 X
b1 z
b10 h
b11 j
#2370000
0#
01
#2375000
1#
11
b11 h
b100 j
#2380000
0#
01
#2385000
1#
11
b100 h
b101 j
#2390000
0#
01
#2395000
1#
11
b101 h
b110 j
#2400000
0#
01
#2405000
1#
11
b110 h
b111 j
1k
#2410000
0#
01
#2415000
1#
11
b111 h
1i
1N
b1 P
0F
0M
1M
1F
1L
b1 R
b1 j
1n
0k
#2420000
0#
01
#2425000
1#
11
b1 O
b1 Q
b1 Z
b1 h
0i
0N
b10 j
0F
0L
0M
1F
0n
0o
#2430000
0#
01
#2435000
1#
11
b10 h
b11 j
#2440000
0#
01
#2445000
1#
11
b11 h
b100 j
#2450000
0#
01
#2455000
1#
11
b100 h
b101 j
#2460000
0#
01
#2465000
1#
11
b101 h
b110 j
#2470000
0#
01
#2475000
1#
11
b110 h
b111 j
1k
#2480000
0#
01
#2485000
1#
11
b111 h
1i
1N
b10 P
0F
1F
1L
b10 R
b1 j
1n
b0 {
0k
#2490000
0#
01
#2495000
1#
11
b0 z
b10 O
b10 Q
b10 Z
b1 h
0i
0N
b10 j
b1000 [
0F
0L
1F
0y
0\
0W
1^
0g
0f
0e
1d
0n
b1 j
b10 j
#2500000
0#
01
#2505000
1#
11
b10 h
b11 j
#2510000
0#
01
#2515000
1#
11
b11 h
b100 j
#2520000
0#
01
#2525000
1#
11
b100 h
b101 j
#2530000
0#
01
#2535000
1#
11
b101 h
b110 j
#2540000
0#
01
#2545000
1#
11
b110 h
b111 j
#2550000
0#
01
#2555000
1#
11
b111 h
b1000 j
1k
#2560000
0#
01
#2565000
1#
11
b1000 h
1i
1N
b11 P
0F
1F
1L
b0 R
0`
b1 j
1n
0k
#2570000
0#
01
#2575000
1#
11
0_
b11 O
b0 Q
b0 Z
b1 h
0i
0N
b10 j
b111 [
0F
0L
1F
0I
1H
1+
0,
1g
1f
1e
0d
0n
b1 j
b10 j
#2580000
0#
01
#2585000
1#
11
b10 h
b11 j
#2590000
0#
01
#2595000
1#
11
b11 h
b100 j
#2600000
0#
01
#2605000
1#
11
b100 h
b101 j
#2610000
0#
01
#2615000
1#
11
b101 h
b110 j
#2620000
0#
01
#2625000
1#
11
b110 h
b111 j
1k
#2630000
0#
01
#2635000
1#
11
b111 h
1i
1N
b100 P
0F
1F
1L
1`
b1 j
1n
0k
#2640000
0#
01
#2645000
1#
11
1_
b100 O
b1 Z
b1 h
0i
0N
b10 j
0F
0L
1F
1I
0H
0+
1,
0n
#2650000
0#
01
#2655000
1#
11
b10 h
b11 j
#2660000
0#
01
#2665000
1#
11
b11 h
b100 j
#2670000
0#
01
#2675000
1#
11
b100 h
b101 j
#2680000
0#
01
#2685000
1#
11
b101 h
b110 j
#2690000
0#
01
#2695000
1#
11
b110 h
b111 j
1k
#2700000
0#
01
#2705000
1#
11
b111 h
1i
1N
b101 P
0F
1F
1L
0`
b1 j
1n
0k
#2710000
0#
01
#2715000
1#
11
0_
b101 O
b10 Z
b1 h
0i
0N
b10 j
b1000 [
0F
0L
1F
0I
1H
1+
0,
0g
0f
0e
1d
0n
b1 j
b10 j
#2720000
0#
01
#2725000
1#
11
b10 h
b11 j
#2730000
0#
01
#2735000
1#
11
b11 h
b100 j
#2740000
0#
01
#2745000
1#
11
b100 h
b101 j
#2750000
0#
01
#2755000
1#
11
b101 h
b110 j
#2760000
0#
01
#2765000
1#
11
b110 h
b111 j
#2770000
0#
01
#2775000
1#
11
b111 h
b1000 j
1k
#2780000
0#
01
#2785000
1#
11
b1000 h
1i
1N
b110 P
0F
1F
1L
1`
b1 j
1n
0k
