tmp/build/u337mg158_ece337_usb_tx_1.0.0/sim-modelsim/waveform.vcd
$date
	Thu Apr 16 23:03:40 2026
$end
$version
	QuestaSim Version 2021.4
$end
$timescale
	1ps
$end

$scope module tb_usb_tx $end
$var parameter 0 ! CLK_PERIOD $end
$var reg 1 " clk $end
$var reg 1 # n_rst $end
$var reg 8 $ tx_packet_data [7:0] $end
$var reg 3 % tx_packet [2:0] $end
$var reg 7 & buffer_occupancy [6:0] $end
$var reg 1 ' get_tx_packet_data $end
$var reg 1 ( tx_transfer_active $end
$var reg 1 ) tx_error $end
$var reg 1 * dm_out $end
$var reg 1 + dp_out $end
$var reg 1 , prev_dp $end

$scope task reset_dut $end
$upscope $end

$scope task init_signals $end
$upscope $end

$scope module DUT $end
$var wire 1 - clk $end
$var wire 1 . n_rst $end
$var wire 1 / tx_packet_data [7] $end
$var wire 1 0 tx_packet_data [6] $end
$var wire 1 1 tx_packet_data [5] $end
$var wire 1 2 tx_packet_data [4] $end
$var wire 1 3 tx_packet_data [3] $end
$var wire 1 4 tx_packet_data [2] $end
$var wire 1 5 tx_packet_data [1] $end
$var wire 1 6 tx_packet_data [0] $end
$var wire 1 7 tx_packet [2] $end
$var wire 1 8 tx_packet [1] $end
$var wire 1 9 tx_packet [0] $end
$var wire 1 : buffer_occupancy [6] $end
$var wire 1 ; buffer_occupancy [5] $end
$var wire 1 < buffer_occupancy [4] $end
$var wire 1 = buffer_occupancy [3] $end
$var wire 1 > buffer_occupancy [2] $end
$var wire 1 ? buffer_occupancy [1] $end
$var wire 1 @ buffer_occupancy [0] $end
$var reg 1 A get_tx_packet_data $end
$var reg 1 B tx_transfer_active $end
$var reg 1 C tx_error $end
$var reg 1 D dm_out $end
$var reg 1 E dp_out $end
$var reg 4 F currentState [3:0] $end
$var reg 4 G nextState [3:0] $end
$var reg 1 H shift_en $end
$var reg 1 I load_en $end
$var reg 1 J bit_pulse $end
$var reg 5 K bit_counter [4:0] $end
$var reg 5 L next_bit_counter [4:0] $end
$var reg 3 M ones_count [2:0] $end
$var reg 3 N next_ones_count [2:0] $end
$var reg 1 O stuff_active $end
$var reg 1 P next_stuff_active $end
$var reg 16 Q crc16 [15:0] $end
$var reg 16 R next_crc16 [15:0] $end
$var reg 1 S nrzi_bit $end
$var reg 4 T pid [3:0] $end
$var reg 8 U sr_load_data [7:0] $end
$var reg 2 V pattern_state [1:0] $end
$var reg 4 W rollover_val [3:0] $end
$var reg 1 X serial_out $end
$var reg 16 Y crc16_inv [15:0] $end
$var reg 1 Z fb $end
$var reg 1 [ dp_orig $end
$var reg 1 \ next_dp_orig $end

$scope module clk_div $end
$var parameter 32 ] SIZE $end
$var wire 1 - clk $end
$var wire 1 . n_rst $end
$var wire 1 ^ clear $end
$var wire 1 _ count_enable $end
$var wire 1 ` rollover_val [3] $end
$var wire 1 a rollover_val [2] $end
$var wire 1 b rollover_val [1] $end
$var wire 1 c rollover_val [0] $end
$var reg 4 d count_out [3:0] $end
$var reg 1 e rollover_flag $end
$var reg 4 f next_count_out [3:0] $end
$var reg 1 g next_rollover_flag $end
$upscope $end

$scope module data_sr $end
$var parameter 32 h SIZE $end
$var parameter 32 i MSB_FIRST $end
$var wire 1 - clk $end
$var wire 1 . n_rst $end
$var wire 1 j shift_enable $end
$var wire 1 k load_enable $end
$var wire 1 l serial_in $end
$var wire 1 m parallel_in [7] $end
$var wire 1 n parallel_in [6] $end
$var wire 1 o parallel_in [5] $end
$var wire 1 p parallel_in [4] $end
$var wire 1 q parallel_in [3] $end
$var wire 1 r parallel_in [2] $end
$var wire 1 s parallel_in [1] $end
$var wire 1 t parallel_in [0] $end
$var reg 1 u serial_out $end
$var reg 8 v parallel_out [7:0] $end
$var reg 8 w next_parallel_out [7:0] $end
$upscope $end
$upscope $end
$upscope $end

$scope begin std $end
$upscope $end
$enddefinitions $end
#0
$dumpvars
0"
0#
b0 $
b0 %
b0 &
0'
0(
0)
0*
1+
x,
0A
0B
0C
0D
1E
b0 F
b0 G
0H
0I
0J
b0 K
b0 L
b0 M
b0 N
0O
0P
b1111111111111111 Q
b1111111111111111 R
1S
b1110 T
b0 U
b0 V
b111 W
1X
b0 d
0e
b1 f
0g
1u
b11111111 v
b11111111 w
b0 Y
0Z
1[
1\
b100 ]
b1000 h
b0 i
r10 !
0@
0?
0>
0=
0<
0;
0:
09
08
07
06
05
04
03
02
01
00
0/
0.
0-
0t
0s
0r
0q
0p
0o
0n
0m
0l
0k
0j
1c
1b
1a
0`
1_
0^
$end
#5000
1"
1-
#10000
0"
0-
#15000
1"
1-
#20000
0"
0-
1#
1.
#25000
1"
1-
b1 d
b10 f
#30000
0"
0-
#35000
1"
1-
b11 %
19
18
b1 G
b10 T
b0 G
b1 G
b10 d
b11 f
#40000
0"
0-
#45000
1"
1-
b11 d
b1 F
1I
1B
b1 U
b100 f
1(
1k
1t
b1 w
#50000
0"
0-
#55000
1"
1-
b1 v
b100 d
b101 f
#60000
0"
0-
#65000
1"
1-
b101 d
b110 f
#70000
0"
0-
#75000
1"
1-
b110 d
b111 f
1g
#80000
0"
0-
#85000
1"
1-
b111 d
1e
1J
b1 L
0B
0I
1I
1B
1H
b1 N
b1111111111111110 R
b1 f
1j
0g
#90000
0"
0-
#95000
1"
1-
b1 K
b1 M
b1111111111111110 Q
b1 V
b1 d
0e
0J
b1 Y
b10 f
0B
0H
0I
1B
0j
0k
#100000
0"
0-
#105000
1"
1-
b10 d
b11 f
#110000
0"
0-
#115000
1"
1-
b11 d
b100 f
#120000
0"
0-
#125000
1"
1-
b100 d
b101 f
#130000
0"
0-
#135000
1"
1-
b101 d
b110 f
#140000
0"
0-
#145000
1"
1-
b110 d
b111 f
1g
#150000
0"
0-
#155000
1"
1-
b111 d
1e
1J
b10 L
0B
1B
1H
b10 N
b1111111111111100 R
b1 f
1j
b0 w
0g
#160000
0"
0-
#165000
1"
1-
b0 v
b10 K
b10 M
b1111111111111100 Q
b10 V
b1 d
0e
0J
b11 Y
b10 f
b1000 W
0B
0H
1B
0u
0X
0S
1Z
0c
0b
0a
1`
0j
b1 f
b10 f
#170000
0"
0-
#175000
1"
1-
b10 d
b11 f
#180000
0"
0-
#185000
1"
1-
b11 d
b100 f
#190000
0"
0-
#195000
1"
1-
b100 d
b101 f
#200000
0"
0-
#205000
1"
1-
b101 d
b110 f
#210000
0"
0-
#215000
1"
1-
b110 d
b111 f
#220000
0"
0-
#225000
1"
1-
b111 d
b1000 f
1g
#230000
0"
0-
#235000
1"
1-
b1000 d
1e
1J
b11 L
0B
1B
1H
b0 N
b1111111111111101 R
b111111111111101 R
0\
b1 f
1j
0g
#240000
0"
0-
#245000
1"
1-
0[
b11 K
b0 M
b111111111111101 Q
b0 V
b1 d
0e
0J
b1000000000000010 Y
0Z
b10 f
b111 W
0B
0H
1B
0E
1D
1*
0+
1c
1b
1a
0`
0j
b1 f
b10 f
#250000
0"
0-
#255000
1"
1-
b10 d
b11 f
#260000
0"
0-
#265000
1"
1-
b11 d
b100 f
#270000
0"
0-
#275000
1"
1-
b100 d
b101 f
#280000
0"
0-
#285000
1"
1-
b101 d
b110 f
#290000
0"
0-
#295000
1"
1-
b110 d
b111 f
1g
#300000
0"
0-
#305000
1"
1-
b111 d
1e
1J
b100 L
0B
1B
1H
b111111111111100 R
b111111111111110 R
b111111111111010 R
b1111111111111010 R
1\
b1 f
1j
0g
#310000
0"
0-
#315000
1"
1-
1[
b100 K
b1111111111111010 Q
b1 V
b1 d
0e
0J
b101 Y
1Z
b10 f
0B
0H
1B
1E
0D
0*
1+
0j
#320000
0"
0-
#325000
1"
1-
b10 d
b11 f
#330000
0"
0-
#335000
1"
1-
b11 d
b100 f
#340000
0"
0-
#345000
1"
1-
b100 d
b101 f
#350000
0"
0-
#355000
1"
1-
b101 d
b110 f
#360000
0"
0-
#365000
1"
1-
b110 d
b111 f
1g
#370000
0"
0-
#375000
1"
1-
b111 d
1e
1J
b101 L
0B
1B
1H
b1111111111111011 R
b1111111111111001 R
b1111111111110001 R
b111111111110001 R
0\
b1 f
1j
0g
#380000
0"
0-
#385000
1"
1-
0[
b101 K
b111111111110001 Q
b10 V
b1 d
0e
0J
b1000000000001110 Y
0Z
b10 f
b1000 W
0B
0H
1B
0E
1D
1*
0+
0c
0b
0a
1`
0j
b1 f
b10 f
#390000
0"
0-
#395000
1"
1-
b10 d
b11 f
#400000
0"
0-
#405000
1"
1-
b11 d
b100 f
#410000
0"
0-
#415000
1"
1-
b100 d
b101 f
#420000
0"
0-
#425000
1"
1-
b101 d
b110 f
#430000
0"
0-
#435000
1"
1-
b110 d
b111 f
#440000
0"
0-
#445000
1"
1-
b111 d
b1000 f
1g
#450000
0"
0-
#455000
1"
1-
b1000 d
1e
1J
b110 L
0B
1B
1H
b111111111110000 R
b111111111110010 R
b111111111100010 R
b1111111111100010 R
1\
b1 f
1j
0g
#460000
0"
0-
#465000
1"
1-
1[
b110 K
b1111111111100010 Q
b0 V
b1 d
0e
0J
b11101 Y
1Z
b10 f
b111 W
0B
0H
1B
1E
0D
0*
1+
1c
1b
1a
0`
0j
b1 f
b10 f
#470000
0"
0-
#475000
1"
1-
b10 d
b11 f
#480000
0"
0-
#485000
1"
1-
b11 d
b100 f
#490000
0"
0-
#495000
1"
1-
b100 d
b101 f
#500000
0"
0-
#505000
1"
1-
b101 d
b110 f
#510000
0"
0-
#515000
1"
1-
b110 d
b111 f
1g
#520000
0"
0-
#525000
1"
1-
b111 d
1e
1J
b111 L
0B
1B
1H
b1111111111100011 R
b1111111111100001 R
b1111111111000001 R
b111111111000001 R
0\
b1 f
1j
0g
#530000
0"
0-
#535000
1"
1-
0[
b111 K
b111111111000001 Q
b1 V
b1 d
0e
0J
b1000000000111110 Y
0Z
b10 f
b10 G
b0 L
0B
0H
1B
0E
1D
1*
0+
0j
#540000
0"
0-
#545000
1"
1-
b10 d
b10 F
b0 K
0B
1I
1B
b11010010 U
b11 f
1k
0t
1s
1p
1n
1m
b11010010 w
#550000
0"
0-
#555000
1"
1-
b11010010 v
b11 d
b100 f
#560000
0"
0-
#565000
1"
1-
b100 d
b101 f
#570000
0"
0-
#575000
1"
1-
b101 d
b110 f
#580000
0"
0-
#585000
1"
1-
b110 d
b111 f
1g
#590000
0"
0-
#595000
1"
1-
b111 d
1e
1J
b1 L
0B
0I
1I
1B
1H
b111111111000000 R
b111111111000010 R
b111111110000010 R
b1111111110000010 R
1\
b1 f
1j
0g
#600000
0"
0-
#605000
1"
1-
1[
b1 K
b1111111110000010 Q
b10 V
b1 d
0e
0J
b1111101 Y
1Z
b10 f
b1000 W
0B
0H
0I
1B
1E
0D
0*
1+
0c
0b
0a
1`
0j
0k
b1 f
b10 f
#610000
0"
0-
#615000
1"
1-
b10 d
b11 f
#620000
0"
0-
#625000
1"
1-
b11 d
b100 f
#630000
0"
0-
#635000
1"
1-
b100 d
b101 f
#640000
0"
0-
#645000
1"
1-
b101 d
b110 f
#650000
0"
0-
#655000
1"
1-
b110 d
b111 f
#660000
0"
0-
#665000
1"
1-
b111 d
b1000 f
1g
#670000
0"
0-
#675000
1"
1-
b1000 d
1e
1J
b10 L
0B
1B
1H
b1111111110000011 R
b1111111110000001 R
b1111111100000001 R
b111111100000001 R
0\
b1 f
1j
b1101001 w
0g
#680000
0"
0-
#685000
1"
1-
b1101001 v
0[
b10 K
b111111100000001 Q
b0 V
b1 d
0e
0J
b1000000011111110 Y
0Z
b10 f
b111 W
0B
0H
1B
0E
1D
1u
b110100 w
1X
1*
0+
1S
1Z
1c
1b
1a
0`
0j
b1 f
b10 f
b1101001 w
#690000
0"
0-
#695000
1"
1-
b10 d
b11 f
#700000
0"
0-
#705000
1"
1-
b11 d
b100 f
#710000
0"
0-
#715000
1"
1-
b100 d
b101 f
#720000
0"
0-
#725000
1"
1-
b101 d
b110 f
#730000
0"
0-
#735000
1"
1-
b110 d
b111 f
1g
#740000
0"
0-
#745000
1"
1-
b111 d
1e
1J
b11 L
0B
1B
1H
b1 N
b111111100000011 R
b111111100000111 R
b111111000000111 R
b1 f
1j
b110100 w
0g
#750000
0"
0-
#755000
1"
1-
b110100 v
b11 K
b1 M
b111111000000111 Q
b1 V
b1 d
0e
0J
b1000000111111000 Y
b10 f
0B
0H
1B
0u
b11010 w
0X
0S
0Z
0j
b110100 w
#760000
0"
0-
#765000
1"
1-
b10 d
b11 f
#770000
0"
0-
#775000
1"
1-
b11 d
b100 f
#780000
0"
0-
#785000
1"
1-
b100 d
b101 f
#790000
0"
0-
#795000
1"
1-
b101 d
b110 f
#800000
0"
0-
#805000
1"
1-
b110 d
b111 f
1g
#810000
0"
0-
#815000
1"
1-
b111 d
1e
1J
b100 L
0B
1B
1H
b0 N
b111111000000110 R
b111111000001110 R
b111110000001110 R
b1111110000001110 R
1\
b1 f
1j
b11010 w
0g
#820000
0"
0-
#825000
1"
1-
b11010 v
1[
b100 K
b0 M
b1111110000001110 Q
b10 V
b1 d
0e
0J
b1111110001 Y
1Z
b10 f
b1000 W
0B
0H
1B
1E
0D
b1101 w
0*
1+
0c
0b
0a
1`
0j
b1 f
b10 f
b11010 w
#830000
0"
0-
#835000
1"
1-
b10 d
b11 f
#840000
0"
0-
#845000
1"
1-
b11 d
b100 f
#850000
0"
0-
#855000
1"
1-
b100 d
b101 f
#860000
0"
0-
#865000
1"
1-
b101 d
b110 f
#870000
0"
0-
#875000
1"
1-
b110 d
b111 f
#880000
0"
0-
#885000
1"
1-
b111 d
b1000 f
1g
#890000
0"
0-
#895000
1"
1-
b1000 d
1e
1J
b101 L
0B
1B
1H
b1111110000001111 R
b1111110000001101 R
b1111110000001001 R
b1111110000011001 R
b1111100000011001 R
b111100000011001 R
0\
b1 f
1j
b1101 w
0g
#900000
0"
0-
#905000
1"
1-
b1101 v
0[
b101 K
b111100000011001 Q
b0 V
b1 d
0e
0J
b1000011111100110 Y
0Z
b10 f
b111 W
0B
0H
1B
0E
1D
1u
b110 w
1X
1*
0+
1S
1Z
1c
1b
1a
0`
0j
b1 f
b10 f
b1101 w
#910000
0"
0-
#915000
1"
1-
b10 d
b11 f
#920000
0"
0-
#925000
1"
1-
b11 d
b100 f
#930000
0"
0-
#935000
1"
1-
b100 d
b101 f
#940000
0"
0-
#945000
1"
1-
b101 d
b110 f
#950000
0"
0-
#955000
1"
1-
b110 d
b111 f
1g
#960000
0"
0-
#965000
1"
1-
b111 d
1e
1J
b110 L
0B
1B
1H
b1 N
b111100000011011 R
b111100000011111 R
b111100000010111 R
b111100000110111 R
b111000000110111 R
b1 f
1j
b110 w
0g
#970000
0"
0-
#975000
1"
1-
b110 v
b110 K
b1 M
b111000000110111 Q
b1 V
b1 d
0e
0J
b1000111111001000 Y
b10 f
0B
0H
1B
0u
b11 w
0X
0S
0Z
0j
b110 w
#980000
0"
0-
#985000
1"
1-
b10 d
b11 f
#990000
0"
0-
#995000
1"
1-
b11 d
b100 f
#1000000
0"
0-
#1005000
1"
1-
b100 d
b101 f
#1010000
0"
0-
#1015000
1"
1-
b101 d
b110 f
#1020000
0"
0-
#1025000
1"
1-
b110 d
b111 f
1g
#1030000
0"
0-
#1035000
1"
1-
b111 d
1e
1J
b111 L
0B
1B
1H
b0 N
b111000000110110 R
b111000000111110 R
b111000000101110 R
b111000001101110 R
b110000001101110 R
b1110000001101110 R
1\
b1 f
1j
b11 w
0g
#1040000
0"
0-
#1045000
1"
1-
b11 v
1[
b111 K
b0 M
b1110000001101110 Q
b10 V
b1 d
0e
0J
b1111110010001 Y
1Z
b10 f
b1000 W
b110 G
b0 L
0B
0H
1B
1E
0D
1u
b1 w
1X
0*
1+
1S
0Z
0c
0b
0a
1`
0j
b1 f
b10 f
b11 w
#1050000
0"
0-
#1055000
1"
1-
b10 d
b110 F
b0 K
0B
b0 U
0E
b11 f
0+
0(
0s
0p
0n
0m
#1060000
0"
0-
#1065000
1"
1-
b11 d
b100 f
#1070000
0"
0-
#1075000
1"
1-
b100 d
b101 f
#1080000
0"
0-
#1085000
1"
1-
b101 d
b110 f
#1090000
0"
0-
#1095000
1"
1-
b110 d
b111 f
#1100000
0"
0-
#1105000
1"
1-
b111 d
b1000 f
1g
#1110000
0"
0-
#1115000
1"
1-
b1000 d
1e
1J
b1 L
b1 f
0g
#1120000
0"
0-
#1125000
1"
1-
b1 K
b0 V
b1 d
0e
0J
b10 f
b111 W
1c
1b
1a
0`
b1 f
b10 f
#1130000
0"
0-
#1135000
1"
1-
b10 d
b11 f
#1140000
0"
0-
#1145000
1"
1-
b11 d
b100 f
#1150000
0"
0-
#1155000
1"
1-
b100 d
b101 f
#1160000
0"
0-
#1165000
1"
1-
b101 d
b110 f
#1170000
0"
0-
#1175000
1"
1-
b110 d
b111 f
1g
#1180000
0"
0-
#1185000
1"
1-
b111 d
1e
1J
b10 L
b1 f
0g
#1190000
0"
0-
#1195000
1"
1-
b10 K
b1 V
b1 d
0e
0J
b10 f
b1000 G
b0 L
#1200000
0"
0-
#1205000
1"
1-
b10 d
b1000 F
b0 K
1E
b11 f
1+
#1210000
0"
0-
#1215000
1"
1-
b11 d
b100 f
#1220000
0"
0-
#1225000
1"
1-
b100 d
b101 f
#1230000
0"
0-
#1235000
1"
1-
b101 d
b110 f
#1240000
0"
0-
#1245000
1"
1-
b110 d
b111 f
1g
#1250000
0"
0-
#1255000
1"
1-
b111 d
1e
1J
b0 G
b1 f
0g
#1260000
0"
0-
#1265000
1"
1-
b0 F
b10 V
b1 d
0e
0J
b10 f
b1000 W
b1 G
b1111111111111111 R
0c
0b
0a
1`
b1 f
b10 f
#1266000
0#
0.
b1111111111111111 Q
b0 V
b0 d
b11111111 v
b0 Y
b11111111 w
b0 f
b1 f
b111 W
1c
1b
1a
0`
b0 f
b1 f
#1270000
0"
0-
#1275000
1"
1-
#1280000
0"
0-
#1285000
1"
1-
#1290000
0"
0-
1#
1.
#1295000
1"
1-
b1 F
b1 d
b10 f
1I
1B
b1 U
1(
1k
1t
b1 w
#1300000
0"
0-
#1305000
1"
1-
b0 %
b100 %
09
08
17
b1010 T
b1 v
b10 d
b11 f
#1310000
0"
0-
#1315000
1"
1-
b11 d
b100 f
#1320000
0"
0-
#1325000
1"
1-
b100 d
b101 f
#1330000
0"
0-
#1335000
1"
1-
b101 d
b110 f
#1340000
0"
0-
#1345000
1"
1-
b110 d
b111 f
1g
#1350000
0"
0-
#1355000
1"
1-
b111 d
1e
1J
b1 L
0B
0I
1I
1B
1H
b1 N
b1111111111111110 R
b1 f
1j
0g
#1360000
0"
0-
#1365000
1"
1-
b1 K
b1 M
b1111111111111110 Q
b1 V
b1 d
0e
0J
b1 Y
b10 f
0B
0H
0I
1B
0j
0k
#1370000
0"
0-
#1375000
1"
1-
b10 d
b11 f
#1380000
0"
0-
#1385000
1"
1-
b11 d
b100 f
#1390000
0"
0-
#1395000
1"
1-
b100 d
b101 f
#1400000
0"
0-
#1405000
1"
1-
b101 d
b110 f
#1410000
0"
0-
#1415000
1"
1-
b110 d
b111 f
1g
#1420000
0"
0-
#1425000
1"
1-
b111 d
1e
1J
b10 L
0B
1B
1H
b10 N
b1111111111111100 R
b1 f
1j
b0 w
0g
#1430000
0"
0-
#1435000
1"
1-
b0 v
b10 K
b10 M
b1111111111111100 Q
b10 V
b1 d
0e
0J
b11 Y
b10 f
b1000 W
0B
0H
1B
0u
0X
0S
1Z
0c
0b
0a
1`
0j
b1 f
b10 f
#1440000
0"
0-
#1445000
1"
1-
b10 d
b11 f
#1450000
0"
0-
#1455000
1"
1-
b11 d
b100 f
#1460000
0"
0-
#1465000
1"
1-
b100 d
b101 f
#1470000
0"
0-
#1475000
1"
1-
b101 d
b110 f
#1480000
0"
0-
#1485000
1"
1-
b110 d
b111 f
#1490000
0"
0-
#1495000
1"
1-
b111 d
b1000 f
1g
#1500000
0"
0-
#1505000
1"
1-
b1000 d
1e
1J
b11 L
0B
1B
1H
b0 N
b1111111111111101 R
b111111111111101 R
0\
b1 f
1j
0g
#1510000
0"
0-
#1515000
1"
1-
0[
b11 K
b0 M
b111111111111101 Q
b0 V
b1 d
0e
0J
b1000000000000010 Y
0Z
b10 f
b111 W
0B
0H
1B
0E
1D
1*
0+
1c
1b
1a
0`
0j
b1 f
b10 f
#1520000
0"
0-
#1525000
1"
1-
b10 d
b11 f
#1530000
0"
0-
#1535000
1"
1-
b11 d
b100 f
#1540000
0"
0-
#1545000
1"
1-
b100 d
b101 f
#1550000
0"
0-
#1555000
1"
1-
b101 d
b110 f
#1560000
0"
0-
#1565000
1"
1-
b110 d
b111 f
1g
#1570000
0"
0-
#1575000
1"
1-
b111 d
1e
1J
b100 L
0B
1B
1H
b111111111111100 R
b111111111111110 R
b111111111111010 R
b1111111111111010 R
1\
b1 f
1j
0g
#1580000
0"
0-
#1585000
1"
1-
1[
b100 K
b1111111111111010 Q
b1 V
b1 d
0e
0J
b101 Y
1Z
b10 f
0B
0H
1B
1E
0D
0*
1+
0j
#1590000
0"
0-
#1595000
1"
1-
b10 d
b11 f
#1600000
0"
0-
#1605000
1"
1-
b11 d
b100 f
#1610000
0"
0-
#1615000
1"
1-
b100 d
b101 f
#1620000
0"
0-
#1625000
1"
1-
b101 d
b110 f
#1630000
0"
0-
#1635000
1"
1-
b110 d
b111 f
1g
#1640000
0"
0-
#1645000
1"
1-
b111 d
1e
1J
b101 L
0B
1B
1H
b1111111111111011 R
b1111111111111001 R
b1111111111110001 R
b111111111110001 R
0\
b1 f
1j
0g
#1650000
0"
0-
#1655000
1"
1-
0[
b101 K
b111111111110001 Q
b10 V
b1 d
0e
0J
b1000000000001110 Y
0Z
b10 f
b1000 W
0B
0H
1B
0E
1D
1*
0+
0c
0b
0a
1`
0j
b1 f
b10 f
#1660000
0"
0-
#1665000
1"
1-
b10 d
b11 f
#1670000
0"
0-
#1675000
1"
1-
b11 d
b100 f
#1680000
0"
0-
#1685000
1"
1-
b100 d
b101 f
#1690000
0"
0-
#1695000
1"
1-
b101 d
b110 f
#1700000
0"
0-
#1705000
1"
1-
b110 d
b111 f
#1710000
0"
0-
#1715000
1"
1-
b111 d
b1000 f
1g
#1720000
0"
0-
#1725000
1"
1-
b1000 d
1e
1J
b110 L
0B
1B
1H
b111111111110000 R
b111111111110010 R
b111111111100010 R
b1111111111100010 R
1\
b1 f
1j
0g
#1730000
0"
0-
#1735000
1"
1-
1[
b110 K
b1111111111100010 Q
b0 V
b1 d
0e
0J
b11101 Y
1Z
b10 f
b111 W
0B
0H
1B
1E
0D
0*
1+
1c
1b
1a
0`
0j
b1 f
b10 f
#1740000
0"
0-
#1745000
1"
1-
b10 d
b11 f
#1750000
0"
0-
#1755000
1"
1-
b11 d
b100 f
#1760000
0"
0-
#1765000
1"
1-
b100 d
b101 f
#1770000
0"
0-
#1775000
1"
1-
b101 d
b110 f
#1780000
0"
0-
#1785000
1"
1-
b110 d
b111 f
1g
#1790000
0"
0-
#1795000
1"
1-
b111 d
1e
1J
b111 L
0B
1B
1H
b1111111111100011 R
b1111111111100001 R
b1111111111000001 R
b111111111000001 R
0\
b1 f
1j
0g
#1800000
0"
0-
#1805000
1"
1-
0[
b111 K
b111111111000001 Q
b1 V
b1 d
0e
0J
b1000000000111110 Y
0Z
b10 f
b10 G
b0 L
0B
0H
1B
0E
1D
1*
0+
0j
#1810000
0"
0-
#1815000
1"
1-
b10 d
b10 F
b0 K
0B
1I
1B
b1011010 U
b11 f
1k
0t
1s
1q
1p
1n
b1011010 w
#1820000
0"
0-
#1825000
1"
1-
b1011010 v
b11 d
b100 f
#1830000
0"
0-
#1835000
1"
1-
b100 d
b101 f
#1840000
0"
0-
#1845000
1"
1-
b101 d
b110 f
#1850000
0"
0-
#1855000
1"
1-
b110 d
b111 f
1g
#1860000
0"
0-
#1865000
1"
1-
b111 d
1e
1J
b1 L
0B
0I
1I
1B
1H
b111111111000000 R
b111111111000010 R
b111111110000010 R
b1111111110000010 R
1\
b1 f
1j
0g
#1870000
0"
0-
#1875000
1"
1-
1[
b1 K
b1111111110000010 Q
b10 V
b1 d
0e
0J
b1111101 Y
1Z
b10 f
b1000 W
0B
0H
0I
1B
1E
0D
0*
1+
0c
0b
0a
1`
0j
0k
b1 f
b10 f
#1880000
0"
0-
#1885000
1"
1-
b10 d
b11 f
#1890000
0"
0-
#1895000
1"
1-
b11 d
b100 f
#1900000
0"
0-
#1905000
1"
1-
b100 d
b101 f
#1910000
0"
0-
#1915000
1"
1-
b101 d
b110 f
#1920000
0"
0-
#1925000
1"
1-
b110 d
b111 f
#1930000
0"
0-
#1935000
1"
1-
b111 d
b1000 f
1g
#1940000
0"
0-
#1945000
1"
1-
b1000 d
1e
1J
b10 L
0B
1B
1H
b1111111110000011 R
b1111111110000001 R
b1111111100000001 R
b111111100000001 R
0\
b1 f
1j
b101101 w
0g
#1950000
0"
0-
#1955000
1"
1-
b101101 v
0[
b10 K
b111111100000001 Q
b0 V
b1 d
0e
0J
b1000000011111110 Y
0Z
b10 f
b111 W
0B
0H
1B
0E
1D
1u
b10110 w
1X
1*
0+
1S
1Z
1c
1b
1a
0`
0j
b1 f
b10 f
b101101 w
#1960000
0"
0-
#1965000
1"
1-
b10 d
b11 f
#1970000
0"
0-
#1975000
1"
1-
b11 d
b100 f
#1980000
0"
0-
#1985000
1"
1-
b100 d
b101 f
#1990000
0"
0-
#1995000
1"
1-
b101 d
b110 f
#2000000
0"
0-
#2005000
1"
1-
b110 d
b111 f
1g
#2010000
0"
0-
#2015000
1"
1-
b111 d
1e
1J
b11 L
0B
1B
1H
b1 N
b111111100000011 R
b111111100000111 R
b111111000000111 R
b1 f
1j
b10110 w
0g
#2020000
0"
0-
#2025000
1"
1-
b10110 v
b11 K
b1 M
b111111000000111 Q
b1 V
b1 d
0e
0J
b1000000111111000 Y
b10 f
0B
0H
1B
0u
b1011 w
0X
0S
0Z
0j
b10110 w
#2030000
0"
0-
#2035000
1"
1-
b10 d
b11 f
#2040000
0"
0-
#2045000
1"
1-
b11 d
b100 f
#2050000
0"
0-
#2055000
1"
1-
b100 d
b101 f
#2060000
0"
0-
#2065000
1"
1-
b101 d
b110 f
#2070000
0"
0-
#2075000
1"
1-
b110 d
b111 f
1g
#2080000
0"
0-
#2085000
1"
1-
b111 d
1e
1J
b100 L
0B
1B
1H
b0 N
b111111000000110 R
b111111000001110 R
b111110000001110 R
b1111110000001110 R
1\
b1 f
1j
b1011 w
0g
#2090000
0"
0-
#2095000
1"
1-
b1011 v
1[
b100 K
b0 M
b1111110000001110 Q
b10 V
b1 d
0e
0J
b1111110001 Y
1Z
b10 f
b1000 W
0B
0H
1B
1E
0D
1u
b101 w
1X
0*
1+
1S
0Z
0c
0b
0a
1`
0j
b1 f
b10 f
b1011 w
#2100000
0"
0-
#2105000
1"
1-
b10 d
b11 f
#2110000
0"
0-
#2115000
1"
1-
b11 d
b100 f
#2120000
0"
0-
#2125000
1"
1-
b100 d
b101 f
#2130000
0"
0-
#2135000
1"
1-
b101 d
b110 f
#2140000
0"
0-
#2145000
1"
1-
b110 d
b111 f
#2150000
0"
0-
#2155000
1"
1-
b111 d
b1000 f
1g
#2160000
0"
0-
#2165000
1"
1-
b1000 d
1e
1J
b101 L
0B
1B
1H
b1 N
b1111110000001100 R
b1111110000011100 R
b1111100000011100 R
b1 f
1j
b101 w
0g
#2170000
0"
0-
#2175000
1"
1-
b101 v
b101 K
b1 M
b1111100000011100 Q
b0 V
b1 d
0e
0J
b11111100011 Y
b10 f
b111 W
0B
0H
1B
b10 w
1c
1b
1a
0`
0j
b1 f
b10 f
b101 w
#2180000
0"
0-
#2185000
1"
1-
b10 d
b11 f
#2190000
0"
0-
#2195000
1"
1-
b11 d
b100 f
#2200000
0"
0-
#2205000
1"
1-
b100 d
b101 f
#2210000
0"
0-
#2215000
1"
1-
b101 d
b110 f
#2220000
0"
0-
#2225000
1"
1-
b110 d
b111 f
1g
#2230000
0"
0-
#2235000
1"
1-
b111 d
1e
1J
b110 L
0B
1B
1H
b10 N
b1111100000011000 R
b1111100000111000 R
b1111000000111000 R
b1 f
1j
b10 w
0g
#2240000
0"
0-
#2245000
1"
1-
b10 v
b110 K
b10 M
b1111000000111000 Q
b1 V
b1 d
0e
0J
b111111000111 Y
b10 f
0B
0H
1B
0u
b1 w
0X
0S
1Z
0j
b10 w
#2250000
0"
0-
#2255000
1"
1-
b10 d
b11 f
#2260000
0"
0-
#2265000
1"
1-
b11 d
b100 f
#2270000
0"
0-
#2275000
1"
1-
b100 d
b101 f
#2280000
0"
0-
#2285000
1"
1-
b101 d
b110 f
#2290000
0"
0-
#2295000
1"
1-
b110 d
b111 f
1g
#2300000
0"
0-
#2305000
1"
1-
b111 d
1e
1J
b111 L
0B
1B
1H
b0 N
b1111000000111001 R
b1111000000111101 R
b1111000000110101 R
b1111000001110101 R
b1110000001110101 R
b110000001110101 R
0\
b1 f
1j
b1 w
0g
#2310000
0"
0-
#2315000
1"
1-
b1 v
0[
b111 K
b0 M
b110000001110101 Q
b10 V
b1 d
0e
0J
b1001111110001010 Y
0Z
b10 f
b1000 W
b110 G
b0 L
0B
0H
1B
0E
1D
1u
b0 w
1X
1*
0+
1S
1Z
0c
0b
0a
1`
0j
b1 f
b10 f
b1 w
#2320000
0"
0-
#2325000
1"
1-
b10 d
b110 F
b0 K
0B
b0 U
0D
b11 f
0*
0(
0s
0q
0p
0n
#2326000
0#
0.
b0 F
b1111111111111111 Q
b0 V
b0 d
b11111111 v
1[
b0 Y
0Z
b11111111 w
b0 f
b1 f
b111 W
b0 G
b1 G
b1111111111111111 R
1\
1E
1+
1c
1b
1a
0`
b0 f
b1 f
#2330000
0"
0-
#2335000
1"
1-
#2340000
0"
0-
#2345000
1"
1-
#2350000
0"
0-
1#
1.
